module gitlab.com/jwambugu/hexagonal-ms

go 1.14

require (
	github.com/go-chi/chi v4.1.2+incompatible
	github.com/go-redis/redis v6.15.8+incompatible
	github.com/pkg/errors v0.9.1
	github.com/teris-io/shortid v0.0.0-20171029131806-771a37caa5cf
	github.com/vmihailenco/msgpack v4.0.4+incompatible
	go.mongodb.org/mongo-driver v1.3.5
	google.golang.org/appengine v1.6.6 // indirect
	gopkg.in/dealancer/validate.v2 v2.1.0
)
